# setting LC_ALL to "C"
# --> Including file '/workspace/GAUDI/GAUDI_future/GaudiExamples/options/ControlFlow/SuperAlgorithm.py'
# --- Configured Control Flow Expression:
# ((((ParentAlg('ParentAlg') >> StopperAlg('StopperAlg')) >> (MySuperAlg(name='s1', item=((Prescaler('s1_Prescaler') & HelloWorld('s1_HW')) & EventCounter('s1_Counter')), OutputLevel=3) >> MySuperAlg(name='s2', item=((Prescaler('s2_Prescaler') & HelloWorld('s2_HW')) & EventCounter('s2_Counter')), OutputLevel=2, PercentPass=75))) >> (HelloWorld('AND') & EventCounter('ANDCounter'))) >> (HelloWorld('OR') | EventCounter('ORCounter')))
# ---
# <-- End of file '/workspace/GAUDI/GAUDI_future/GaudiExamples/options/ControlFlow/SuperAlgorithm.py'
# applying configuration of GaudiExamplesCommonConf
# /***** User GaudiExamplesCommonConf/GaudiExamplesCommonConf ****************************************
# |-OutputLevel = 3
# |-DummyEvents = -1
# \----- (End of User GaudiExamplesCommonConf/GaudiExamplesCommonConf) -------------------------------
ApplicationMgr    SUCCESS
====================================================================================================================================
                                                   Welcome to ApplicationMgr (GaudiCoreSvc v4r1)
                                          running on pcphlbc16 on Fri Jul  8 12:48:55 2016
====================================================================================================================================
ApplicationMgr       INFO Application Manager Configured successfully
StatusCodeSvc        INFO initialize
RndmGenSvc.Engine    INFO Generator engine type:CLHEP::RanluxEngine
RndmGenSvc.Engine    INFO Current Seed:1234567 Luxury:3
RndmGenSvc           INFO Using Random engine:HepRndm::Engine<CLHEP::RanluxEngine>
TIMER.TIMER          INFO This machine has a speed about   2.81 times the speed of a 2.8 GHz Xeon.
ChronoStatSvc        INFO  Number of skipped events for MemStat-1
seq_10               INFO Member list: GaudiSequencer/seq_8, GaudiSequencer/seq_9
ToolSvc.Sequenc...   INFO This machine has a speed about   3.09 times the speed of a 2.8 GHz Xeon.
seq_8                INFO Member list: GaudiSequencer/seq_6, GaudiSequencer/seq_7
seq_6                INFO Member list: GaudiSequencer/seq_0, GaudiSequencer/seq_5
seq_0                INFO Member list: ParentAlg, StopperAlg
ParentAlg            INFO creating sub-algorithms....
SubAlg1              INFO initializing....
SubAlg2              INFO initializing....
seq_5                INFO Member list: GaudiSequencer/seq_2, GaudiSequencer/seq_4
seq_2                INFO Member list: GaudiSequencer/seq_1, EventCounter/s1_Counter
seq_1                INFO Member list: Prescaler/s1_Prescaler, HelloWorld/s1_HW
s1_Prescaler         INFO s1_Prescaler:Prescaler::Initialize - pass:  'PercentPass':50.000000
s1_HW                INFO initializing....
s1_Counter           INFO s1_Counter:EventCounter::initialize - Frequency:  'Frequency':1
seq_4                INFO Member list: GaudiSequencer/seq_3, EventCounter/s2_Counter
seq_3                INFO Member list: Prescaler/s2_Prescaler, HelloWorld/s2_HW
s2_Prescaler        DEBUG Property update for OutputLevel : new value = 2
s2_Prescaler        DEBUG Initialize base class GaudiCommon<Algorithm>
s2_Prescaler        DEBUG could not locate CounterSummarySvc, no counter summary will be made
s2_Prescaler        DEBUG List of ALL properties of Prescaler/s2_Prescaler  #properties = 36
s2_Prescaler        DEBUG Property ['Name': Value] =  'PercentPass':75.000000
s2_Prescaler        DEBUG Property ['Name': Value] =  'RequireObjects':[  ]
s2_Prescaler        DEBUG Property ['Name': Value] =  'VetoObjects':[  ]
s2_Prescaler        DEBUG Property ['Name': Value] =  'StatEntityList':[  ]
s2_Prescaler        DEBUG Property ['Name': Value] =  'CounterList':[ '.*' ]
s2_Prescaler        DEBUG Property ['Name': Value] =  'UseEfficiencyRowFormat':True
s2_Prescaler        DEBUG Property ['Name': Value] =  'EfficiencyRowFormat': |*%|-48.48s|%|50t||%|10d| |%|11.5g| |(%|#9.6g| +- %|-#9.6g|)%%|   -------   |   -------   |
s2_Prescaler        DEBUG Property ['Name': Value] =  'RegularRowFormat': | %|-48.48s|%|50t||%|10d| |%|11.7g| |%|#11.5g| |%|#11.5g| |%|#12.5g| |%|#12.5g| |
s2_Prescaler        DEBUG Property ['Name': Value] =  'StatTableHeader': |    Counter                                      |     #     |    sum     | mean/eff^* | rms/err^*  |     min     |     max     |
s2_Prescaler        DEBUG Property ['Name': Value] =  'RootInTES':
s2_Prescaler        DEBUG Property ['Name': Value] =  'Context':
s2_Prescaler        DEBUG Property ['Name': Value] =  'TypePrint':True
s2_Prescaler        DEBUG Property ['Name': Value] =  'StatPrint':True
s2_Prescaler        DEBUG Property ['Name': Value] =  'PropertiesPrint':False
s2_Prescaler        DEBUG Property ['Name': Value] =  'ErrorsPrint':True
s2_Prescaler        DEBUG Property ['Name': Value] =  'NeededResources':[  ]
s2_Prescaler        DEBUG Property ['Name': Value] =  'Cardinality':1
s2_Prescaler        DEBUG Property ['Name': Value] =  'RegisterForContextService':True
s2_Prescaler        DEBUG Property ['Name': Value] =  'MonitorService':MonitorSvc
s2_Prescaler        DEBUG Property ['Name': Value] =  'Timeline':False
s2_Prescaler        DEBUG Property ['Name': Value] =  'AuditStop':True
s2_Prescaler        DEBUG Property ['Name': Value] =  'AuditStart':True
s2_Prescaler        DEBUG Property ['Name': Value] =  'AuditEndRun':True
s2_Prescaler        DEBUG Property ['Name': Value] =  'AuditBeginRun':True
s2_Prescaler        DEBUG Property ['Name': Value] =  'AuditFinalize':True
s2_Prescaler        DEBUG Property ['Name': Value] =  'AuditExecute':True
s2_Prescaler        DEBUG Property ['Name': Value] =  'AuditRestart':True
s2_Prescaler        DEBUG Property ['Name': Value] =  'AuditReinitialize':True
s2_Prescaler        DEBUG Property ['Name': Value] =  'AuditInitialize':True
s2_Prescaler        DEBUG Property ['Name': Value] =  'AuditAlgorithms':True
s2_Prescaler        DEBUG Property ['Name': Value] =  'ExtraOutputs':[]
s2_Prescaler        DEBUG Property ['Name': Value] =  'ExtraInputs':[]
s2_Prescaler        DEBUG Property ['Name': Value] =  'ErrorCounter':0
s2_Prescaler        DEBUG Property ['Name': Value] =  'ErrorMax':1
s2_Prescaler        DEBUG Property ['Name': Value] =  'Enable':True
s2_Prescaler        DEBUG Property ['Name': Value] =  'OutputLevel':2
s2_Prescaler         INFO s2_Prescaler:Prescaler::Initialize - pass:  'PercentPass':75.000000
s2_Prescaler        DEBUG input handles: 0
s2_Prescaler        DEBUG output handles: 0
s2_Prescaler        DEBUG Data Deps for s2_Prescaler
s2_HW               DEBUG Property update for OutputLevel : new value = 2
s2_HW                INFO initializing....
s2_HW               DEBUG input handles: 0
s2_HW               DEBUG output handles: 0
s2_HW               DEBUG Data Deps for s2_HW
s2_Counter          DEBUG Property update for OutputLevel : new value = 2
s2_Counter           INFO s2_Counter:EventCounter::initialize - Frequency:  'Frequency':1
s2_Counter          DEBUG input handles: 0
s2_Counter          DEBUG output handles: 0
s2_Counter          DEBUG Data Deps for s2_Counter
seq_7                INFO Member list: HelloWorld/AND, EventCounter/ANDCounter
AND                  INFO initializing....
ANDCounter           INFO ANDCounter:EventCounter::initialize - Frequency:  'Frequency':1
seq_9                INFO OR Member list: HelloWorld/OR, EventCounter/ORCounter
OR                   INFO initializing....
ORCounter            INFO ORCounter:EventCounter::initialize - Frequency:  'Frequency':1
EventLoopMgr         INFO Control Flow Expression:
EventLoopMgr         INFO seq(seq(seq(seq(ParentAlg('ParentAlg') & StopperAlg('StopperAlg')) & seq(seq(seq(Prescaler('s1_Prescaler') & HelloWorld('s1_HW')) & EventCounter('s1_Counter')) & seq(seq(Prescaler('s2_Prescaler') & HelloWorld('s2_HW')) & EventCounter('s2_Counter')))) & seq(HelloWorld('AND') & EventCounter('ANDCounter'))) & seq(HelloWorld('OR') | EventCounter('ORCounter')))
EventLoopMgr      WARNING Unable to locate service "EventSelector"
EventLoopMgr      WARNING No events will be processed from external input.
HistogramPersis...WARNING Histograms saving not required.
ApplicationMgr       INFO Application Manager Initialized successfully
ApplicationMgr       INFO Application Manager Started successfully
ParentAlg            INFO executing....
SubAlg1              INFO executing....
SubAlg2              INFO executing....
s1_Prescaler         INFO s1_Prescaler:Prescaler::execute - filter failed
s2_Prescaler         INFO s2_Prescaler:Prescaler::execute - filter failed
AND                  INFO executing....
ANDCounter           INFO ANDCounter:EventCounter::execute - seen events: 1
OR                   INFO executing....
ParentAlg            INFO executing....
SubAlg1              INFO executing....
SubAlg2              INFO executing....
s1_Prescaler         INFO s1_Prescaler:Prescaler::execute - filter passed
s1_HW                INFO executing....
s1_Counter           INFO s1_Counter:EventCounter::execute - seen events: 1
s2_Prescaler         INFO s2_Prescaler:Prescaler::execute - filter passed
s2_HW                INFO executing....
s2_Counter           INFO s2_Counter:EventCounter::execute - seen events: 1
AND                  INFO executing....
ANDCounter           INFO ANDCounter:EventCounter::execute - seen events: 2
OR                   INFO executing....
ParentAlg            INFO executing....
SubAlg1              INFO executing....
SubAlg2              INFO executing....
s1_Prescaler         INFO s1_Prescaler:Prescaler::execute - filter failed
s2_Prescaler         INFO s2_Prescaler:Prescaler::execute - filter passed
s2_HW                INFO executing....
s2_Counter           INFO s2_Counter:EventCounter::execute - seen events: 2
AND                  INFO executing....
ANDCounter           INFO ANDCounter:EventCounter::execute - seen events: 3
OR                   INFO executing....
ParentAlg            INFO executing....
SubAlg1              INFO executing....
SubAlg2              INFO executing....
s1_Prescaler         INFO s1_Prescaler:Prescaler::execute - filter passed
s1_HW                INFO executing....
s1_Counter           INFO s1_Counter:EventCounter::execute - seen events: 2
s2_Prescaler         INFO s2_Prescaler:Prescaler::execute - filter passed
s2_HW                INFO executing....
s2_Counter           INFO s2_Counter:EventCounter::execute - seen events: 3
AND                  INFO executing....
ANDCounter           INFO ANDCounter:EventCounter::execute - seen events: 4
OR                   INFO executing....
ParentAlg            INFO executing....
SubAlg1              INFO executing....
SubAlg2              INFO executing....
s1_Prescaler         INFO s1_Prescaler:Prescaler::execute - filter failed
s2_Prescaler         INFO s2_Prescaler:Prescaler::execute - filter failed
AND                  INFO executing....
ANDCounter           INFO ANDCounter:EventCounter::execute - seen events: 5
OR                   INFO executing....
ParentAlg            INFO executing....
SubAlg1              INFO executing....
SubAlg2              INFO executing....
s1_Prescaler         INFO s1_Prescaler:Prescaler::execute - filter passed
s1_HW                INFO executing....
s1_Counter           INFO s1_Counter:EventCounter::execute - seen events: 3
s2_Prescaler         INFO s2_Prescaler:Prescaler::execute - filter passed
s2_HW                INFO executing....
s2_Counter           INFO s2_Counter:EventCounter::execute - seen events: 4
AND                  INFO executing....
ANDCounter           INFO ANDCounter:EventCounter::execute - seen events: 6
OR                   INFO executing....
ParentAlg            INFO executing....
SubAlg1              INFO executing....
SubAlg2              INFO executing....
s1_Prescaler         INFO s1_Prescaler:Prescaler::execute - filter failed
s2_Prescaler         INFO s2_Prescaler:Prescaler::execute - filter passed
s2_HW                INFO executing....
s2_Counter           INFO s2_Counter:EventCounter::execute - seen events: 5
AND                  INFO executing....
ANDCounter           INFO ANDCounter:EventCounter::execute - seen events: 7
OR                   INFO executing....
ParentAlg            INFO executing....
SubAlg1              INFO executing....
SubAlg2              INFO executing....
s1_Prescaler         INFO s1_Prescaler:Prescaler::execute - filter passed
s1_HW                INFO executing....
s1_Counter           INFO s1_Counter:EventCounter::execute - seen events: 4
s2_Prescaler         INFO s2_Prescaler:Prescaler::execute - filter passed
s2_HW                INFO executing....
s2_Counter           INFO s2_Counter:EventCounter::execute - seen events: 6
AND                  INFO executing....
ANDCounter           INFO ANDCounter:EventCounter::execute - seen events: 8
OR                   INFO executing....
ParentAlg            INFO executing....
SubAlg1              INFO executing....
SubAlg2              INFO executing....
s1_Prescaler         INFO s1_Prescaler:Prescaler::execute - filter failed
s2_Prescaler         INFO s2_Prescaler:Prescaler::execute - filter failed
AND                  INFO executing....
ANDCounter           INFO ANDCounter:EventCounter::execute - seen events: 9
OR                   INFO executing....
ParentAlg            INFO executing....
SubAlg1              INFO executing....
SubAlg2              INFO executing....
s1_Prescaler         INFO s1_Prescaler:Prescaler::execute - filter passed
s1_HW                INFO executing....
s1_Counter           INFO s1_Counter:EventCounter::execute - seen events: 5
s2_Prescaler         INFO s2_Prescaler:Prescaler::execute - filter passed
s2_HW                INFO executing....
s2_Counter           INFO s2_Counter:EventCounter::execute - seen events: 7
AND                  INFO executing....
ANDCounter           INFO ANDCounter:EventCounter::execute - seen events: 10
OR                   INFO executing....
ApplicationMgr       INFO Application Manager Stopped successfully
ParentAlg            INFO finalizing....
SubAlg1              INFO finalizing....
SubAlg2              INFO finalizing....
s1_Prescaler         INFO s1_Prescaler:Prescaler::finalize - total events: 10, passed events: 5
s1_HW                INFO finalizing....
s1_Counter           INFO s1_Counter:EventCounter::finalize - total events: 5
s2_Prescaler         INFO s2_Prescaler:Prescaler::finalize - total events: 10, passed events: 7
s2_Prescaler        DEBUG Finalize base class GaudiAlgorithm
s2_Prescaler        DEBUG Tools to release :
s2_Prescaler        DEBUG Services to release :
s2_HW                INFO finalizing....
s2_Counter           INFO s2_Counter:EventCounter::finalize - total events: 7
AND                  INFO finalizing....
ANDCounter           INFO ANDCounter:EventCounter::finalize - total events: 10
OR                   INFO finalizing....
ORCounter            INFO ORCounter:EventCounter::finalize - total events: 0
EventLoopMgr         INFO Histograms converted successfully according to request.
ToolSvc              INFO Removing all tools created by ToolSvc
ToolSvc.Sequenc...   INFO --------------------------------------------------------------------------------------------------
ToolSvc.Sequenc...   INFO This machine has a speed about   3.09 times the speed of a 2.8 GHz Xeon.
ToolSvc.Sequenc...   INFO Algorithm          (millisec) |    <user> |   <clock> |      min       max    sigma | entries | total (s) |
ToolSvc.Sequenc...   INFO --------------------------------------------------------------------------------------------------
ToolSvc.Sequenc...   INFO seq_10                        |     0.000 |     0.231 |    0.172       0.3     0.03 |      10 |     0.002 |
ToolSvc.Sequenc...   INFO   seq_8                       |     0.000 |     0.209 |    0.151       0.2     0.03 |      10 |     0.002 |
ToolSvc.Sequenc...   INFO     seq_6                     |     0.000 |     0.159 |    0.106       0.2     0.03 |      10 |     0.002 |
ToolSvc.Sequenc...   INFO       seq_0                   |     0.000 |     0.043 |    0.038       0.1     0.01 |      10 |     0.000 |
ToolSvc.Sequenc...   INFO         ParentAlg             |     0.000 |     0.031 |    0.027       0.1     0.01 |      10 |     0.000 |
ToolSvc.Sequenc...   INFO         StopperAlg            |     0.000 |     0.006 |    0.005       0.0     0.00 |      10 |     0.000 |
ToolSvc.Sequenc...   INFO       seq_5                   |     0.000 |     0.110 |    0.062       0.2     0.04 |      10 |     0.001 |
ToolSvc.Sequenc...   INFO         seq_2                 |     0.000 |     0.046 |    0.027       0.1     0.02 |      10 |     0.000 |
ToolSvc.Sequenc...   INFO           seq_1               |     0.000 |     0.030 |    0.020       0.0     0.01 |      10 |     0.000 |
ToolSvc.Sequenc...   INFO             s1_Prescaler      |     0.000 |     0.014 |    0.013       0.0     0.00 |      10 |     0.000 |
ToolSvc.Sequenc...   INFO             s1_HW             |     0.000 |     0.018 |    0.017       0.0     0.00 |       5 |     0.000 |
ToolSvc.Sequenc...   INFO           s1_Counter          |     0.000 |     0.016 |    0.015       0.0     0.00 |       5 |     0.000 |
ToolSvc.Sequenc...   INFO         seq_4                 |     0.000 |     0.057 |    0.029       0.1     0.02 |      10 |     0.001 |
ToolSvc.Sequenc...   INFO           seq_3               |     0.000 |     0.035 |    0.020       0.0     0.01 |      10 |     0.000 |
ToolSvc.Sequenc...   INFO             s2_Prescaler      |     0.000 |     0.014 |    0.014       0.0     0.00 |      10 |     0.000 |
ToolSvc.Sequenc...   INFO             s2_HW             |     0.000 |     0.018 |    0.017       0.0     0.00 |       7 |     0.000 |
ToolSvc.Sequenc...   INFO           s2_Counter          |     0.000 |     0.016 |    0.015       0.0     0.00 |       7 |     0.000 |
ToolSvc.Sequenc...   INFO     seq_7                     |     0.000 |     0.044 |    0.039       0.1     0.00 |      10 |     0.000 |
ToolSvc.Sequenc...   INFO       AND                     |     0.000 |     0.014 |    0.013       0.0     0.00 |      10 |     0.000 |
ToolSvc.Sequenc...   INFO       ANDCounter              |     0.000 |     0.019 |    0.018       0.0     0.00 |      10 |     0.000 |
ToolSvc.Sequenc...   INFO   seq_9                       |     0.000 |     0.020 |    0.016       0.0     0.00 |      10 |     0.000 |
ToolSvc.Sequenc...   INFO     OR                        |     0.000 |     0.013 |    0.010       0.0     0.00 |      10 |     0.000 |
ToolSvc.Sequenc...   INFO     ORCounter                 |     0.000 |     0.000 |    0.000       0.0     0.00 |       0 |     0.000 |
ToolSvc.Sequenc...   INFO --------------------------------------------------------------------------------------------------
TIMER.TIMER          INFO --------------------------------------------------------------------------------------------------
TIMER.TIMER          INFO This machine has a speed about   2.81 times the speed of a 2.8 GHz Xeon.
TIMER.TIMER          INFO Algorithm          (millisec) |    <user> |   <clock> |      min       max    sigma | entries | total (s) |
TIMER.TIMER          INFO --------------------------------------------------------------------------------------------------
TIMER.TIMER          INFO EVENT LOOP                    |     0.400 |     0.262 |    0.187       0.4     0.05 |      10 |     0.003 |
TIMER.TIMER          INFO  seq_10                       |     0.000 |     0.234 |    0.174       0.3     0.03 |      10 |     0.002 |
TIMER.TIMER          INFO   seq_8                       |     0.000 |     0.206 |    0.147       0.2     0.03 |      10 |     0.002 |
TIMER.TIMER          INFO    seq_6                      |     0.000 |     0.156 |    0.103       0.2     0.03 |      10 |     0.002 |
TIMER.TIMER          INFO     seq_0                     |     0.000 |     0.040 |    0.036       0.1     0.01 |      10 |     0.000 |
TIMER.TIMER          INFO      ParentAlg                |     0.000 |     0.025 |    0.022       0.0     0.01 |      10 |     0.000 |
TIMER.TIMER          INFO       SubAlg1                 |     0.000 |     0.000 |    0.000       0.0     0.00 |       0 |     0.000 |
TIMER.TIMER          INFO       SubAlg2                 |     0.000 |     0.000 |    0.000       0.0     0.00 |       0 |     0.000 |
TIMER.TIMER          INFO      StopperAlg               |     0.000 |     0.003 |    0.003       0.0     0.00 |      10 |     0.000 |
TIMER.TIMER          INFO     seq_5                     |     0.000 |     0.106 |    0.059       0.1     0.03 |      10 |     0.001 |
TIMER.TIMER          INFO      seq_2                    |     0.000 |     0.042 |    0.023       0.1     0.02 |      10 |     0.000 |
TIMER.TIMER          INFO       seq_1                   |     0.000 |     0.027 |    0.017       0.0     0.01 |      10 |     0.000 |
TIMER.TIMER          INFO        s1_Prescaler           |     0.000 |     0.010 |    0.010       0.0     0.00 |      10 |     0.000 |
TIMER.TIMER          INFO        s1_HW                  |     0.000 |     0.013 |    0.013       0.0     0.00 |       5 |     0.000 |
TIMER.TIMER          INFO       s1_Counter              |     0.000 |     0.013 |    0.012       0.0     0.00 |       5 |     0.000 |
TIMER.TIMER          INFO      seq_4                    |     0.000 |     0.052 |    0.025       0.1     0.02 |      10 |     0.001 |
TIMER.TIMER          INFO       seq_3                   |     0.000 |     0.031 |    0.017       0.0     0.01 |      10 |     0.000 |
TIMER.TIMER          INFO        s2_Prescaler           |     0.000 |     0.011 |    0.010       0.0     0.00 |      10 |     0.000 |
TIMER.TIMER          INFO        s2_HW                  |     0.000 |     0.014 |    0.013       0.0     0.00 |       7 |     0.000 |
TIMER.TIMER          INFO       s2_Counter              |     0.000 |     0.012 |    0.011       0.0     0.00 |       7 |     0.000 |
TIMER.TIMER          INFO    seq_7                      |     0.000 |     0.039 |    0.034       0.0     0.00 |      10 |     0.000 |
TIMER.TIMER          INFO     AND                       |     0.000 |     0.011 |    0.010       0.0     0.00 |      10 |     0.000 |
TIMER.TIMER          INFO     ANDCounter                |     0.000 |     0.014 |    0.013       0.0     0.00 |      10 |     0.000 |
TIMER.TIMER          INFO   seq_9                       |     0.000 |     0.016 |    0.012       0.0     0.00 |      10 |     0.000 |
TIMER.TIMER          INFO    OR                         |     0.000 |     0.010 |    0.008       0.0     0.00 |      10 |     0.000 |
TIMER.TIMER          INFO    ORCounter                  |     0.000 |     0.000 |    0.000       0.0     0.00 |       0 |     0.000 |
TIMER.TIMER          INFO --------------------------------------------------------------------------------------------------
*****Chrono*****     INFO ****************************************************************************************************
*****Chrono*****     INFO  The Final CPU consumption ( Chrono ) Table (ordered)
*****Chrono*****     INFO ****************************************************************************************************
s2_HW:Stop           INFO Time User   : Tot=    0 [us]                                             #=  1
s1_Prescaler:Start   INFO Time User   : Tot=    0 [us]                                             #=  1
ORCounter:Start      INFO Time User   : Tot=    0 [us]                                             #=  1
seq_0:Start          INFO Time User   : Tot=    0 [us]                                             #=  1
s1_Counter:Stop      INFO Time User   : Tot=    0 [us]                                             #=  1
seq_9:Stop           INFO Time User   : Tot=    0 [us]                                             #=  1
seq_3:Start          INFO Time User   : Tot=    0 [us]                                             #=  1
seq_3:Stop           INFO Time User   : Tot=    0 [us]                                             #=  1
s1_HW:Stop           INFO Time User   : Tot=    0 [us]                                             #=  1
s1_HW:Start          INFO Time User   : Tot=    0 [us]                                             #=  1
s1_Counter:Start     INFO Time User   : Tot=    0 [us]                                             #=  1
SubAlg1:Stop         INFO Time User   : Tot=    0 [us]                                             #=  1
seq_4:Stop           INFO Time User   : Tot=    0 [us]                                             #=  1
SubAlg2:Stop         INFO Time User   : Tot=    0 [us]                                             #=  1
SubAlg2:Start        INFO Time User   : Tot=    0 [us]                                             #=  1
seq_5:Start          INFO Time User   : Tot=    0 [us]                                             #=  1
s2_HW:Start          INFO Time User   : Tot=    0 [us]                                             #=  1
seq_10:Stop          INFO Time User   : Tot=    0 [us]                                             #=  1
s2_Prescaler:Stop    INFO Time User   : Tot=    0 [us]                                             #=  1
s2_Prescaler:Start   INFO Time User   : Tot=    0 [us]                                             #=  1
seq_1:Start          INFO Time User   : Tot=    0 [us]                                             #=  1
s1_Prescaler:Stop    INFO Time User   : Tot=    0 [us]                                             #=  1
seq_1:Stop           INFO Time User   : Tot=    0 [us]                                             #=  1
seq_2:Start          INFO Time User   : Tot=    0 [us]                                             #=  1
s2_Counter:Start     INFO Time User   : Tot=    0 [us]                                             #=  1
seq_2:Stop           INFO Time User   : Tot=    0 [us]                                             #=  1
OR:Stop              INFO Time User   : Tot=    0 [us]                                             #=  1
seq_6:Stop           INFO Time User   : Tot=    0 [us]                                             #=  1
AND:Start            INFO Time User   : Tot=    0 [us]                                             #=  1
ORCounter:Stop       INFO Time User   : Tot=    0 [us]                                             #=  1
AND:Stop             INFO Time User   : Tot=    0 [us]                                             #=  1
seq_5:Stop           INFO Time User   : Tot=    0 [us]                                             #=  1
OR:Start             INFO Time User   : Tot=    0 [us]                                             #=  1
seq_8:Stop           INFO Time User   : Tot=    0 [us]                                             #=  1
seq_7:Start          INFO Time User   : Tot=    0 [us]                                             #=  1
seq_8:Start          INFO Time User   : Tot=    0 [us]                                             #=  1
seq_7:Stop           INFO Time User   : Tot=    0 [us]                                             #=  1
ANDCounter:Start     INFO Time User   : Tot=    0 [us]                                             #=  1
seq_6:Finalize       INFO Time User   : Tot=    0 [us]                                             #=  1
SubAlg1:Start        INFO Time User   : Tot=    0 [us]                                             #=  1
StopperAlg:Stop      INFO Time User   : Tot=    0 [us]                                             #=  1
StopperAlg:Start     INFO Time User   : Tot=    0 [us]                                             #=  1
StopperAlg:Init...   INFO Time User   : Tot=    0 [us]                                             #=  1
StopperAlg:Fina...   INFO Time User   : Tot=    0 [us]                                             #=  1
seq_9:Start          INFO Time User   : Tot=    0 [us]                                             #=  1
ParentAlg:Stop       INFO Time User   : Tot=    0 [us]                                             #=  1
ParentAlg:Start      INFO Time User   : Tot=    0 [us]                                             #=  1
seq_6:Start          INFO Time User   : Tot=    0 [us]                                             #=  1
seq_10:Start         INFO Time User   : Tot=    0 [us]                                             #=  1
seq_9:Finalize       INFO Time User   : Tot=    0 [us]                                             #=  1
seq_10:Finalize      INFO Time User   : Tot=    0 [us]                                             #=  1
ANDCounter:Stop      INFO Time User   : Tot=    0 [us]                                             #=  1
seq_5:Finalize       INFO Time User   : Tot=    0 [us]                                             #=  1
seq_4:Start          INFO Time User   : Tot=    0 [us]                                             #=  1
seq_4:Finalize       INFO Time User   : Tot=    0 [us]                                             #=  1
seq_8:Finalize       INFO Time User   : Tot=    0 [us]                                             #=  1
seq_3:Finalize       INFO Time User   : Tot=    0 [us]                                             #=  1
seq_7:Finalize       INFO Time User   : Tot=    0 [us]                                             #=  1
seq_2:Finalize       INFO Time User   : Tot=    0 [us]                                             #=  1
seq_0:Stop           INFO Time User   : Tot=    0 [us]                                             #=  1
s1_HW:Finalize       INFO Time User   : Tot=    0 [us]                                             #=  1
seq_1:Finalize       INFO Time User   : Tot=    0 [us]                                             #=  1
s2_Counter:Stop      INFO Time User   : Tot=    0 [us]                                             #=  1
SubAlg2:Finalize     INFO Time User   : Tot=    0 [us]                                             #=  1
ParentAlg:Finalize   INFO Time User   : Tot=    0 [us]                                             #=  1
ANDCounter:Fina...   INFO Time User   : Tot=    0 [us]                                             #=  1
SubAlg2:Initialize   INFO Time User   : Tot=    0 [us]                                             #=  1
ORCounter:Finalize   INFO Time User   : Tot=    0 [us]                                             #=  1
s2_HW:Finalize       INFO Time User   : Tot=    0 [us]                                             #=  1
s2_Counter:Fina...   INFO Time User   : Tot=    0 [us]                                             #=  1
OR:Finalize          INFO Time User   : Tot=    0 [us]                                             #=  1
AND:Finalize         INFO Time User   : Tot=    0 [us]                                             #=  1
s1_Counter:Fina...   INFO Time User   : Tot=    0 [us]                                             #=  1
s1_Prescaler:Fi...   INFO Time User   : Tot=    0 [us]                                             #=  1
SubAlg1:Initialize   INFO Time User   : Tot=    0 [us]                                             #=  1
SubAlg1:Finalize     INFO Time User   : Tot=    0 [us]                                             #=  1
s2_Counter:Init...   INFO Time User   : Tot=    0 [us]                                             #=  1
ANDCounter:Init...   INFO Time User   : Tot=    0 [us]                                             #=  1
ORCounter:Initi...   INFO Time User   : Tot=    0 [us]                                             #=  1
s1_Counter:Init...   INFO Time User   : Tot=    0 [us]                                             #=  1
AND:Initialize       INFO Time User   : Tot=    0 [us]                                             #=  1
OR:Initialize        INFO Time User   : Tot=    0 [us]                                             #=  1
s2_Prescaler:Fi...   INFO Time User   : Tot=    0 [us]                                             #=  1
s2_HW:Initialize     INFO Time User   : Tot=    0 [us]                                             #=  1
seq_0:Finalize       INFO Time User   : Tot=    0 [us]                                             #=  1
s1_HW:Initialize     INFO Time User   : Tot=    0 [us]                                             #=  1
s1_Prescaler:In...   INFO Time User   : Tot=    0 [us]                                             #=  1
ParentAlg:Initi...   INFO Time User   : Tot=    0 [us]                                             #=  1
seq_7:Initialize     INFO Time User   : Tot=    0 [us]                                             #=  1
seq_9:Initialize     INFO Time User   : Tot=    0 [us]                                             #=  1
seq_1:Initialize     INFO Time User   : Tot=    0 [us]                                             #=  1
seq_2:Initialize     INFO Time User   : Tot=    0 [us]                                             #=  1
s1_Counter:Execute   INFO Time User   : Tot=    0 [us] Ave/Min/Max=    0(+-    0)/    0/    0 [us] #=  5
s1_HW:Execute        INFO Time User   : Tot=    0 [us] Ave/Min/Max=    0(+-    0)/    0/    0 [us] #=  5
s2_Counter:Execute   INFO Time User   : Tot=    0 [us] Ave/Min/Max=    0(+-    0)/    0/    0 [us] #=  7
s2_HW:Execute        INFO Time User   : Tot=    0 [us] Ave/Min/Max=    0(+-    0)/    0/    0 [us] #=  7
StopperAlg:Execute   INFO Time User   : Tot=    0 [us] Ave/Min/Max=    0(+-    0)/    0/    0 [us] #= 10
OR:Execute           INFO Time User   : Tot=    0 [us] Ave/Min/Max=    0(+-    0)/    0/    0 [us] #= 10
s2_Prescaler:Ex...   INFO Time User   : Tot=    0 [us] Ave/Min/Max=    0(+-    0)/    0/    0 [us] #= 10
AND:Execute          INFO Time User   : Tot=    0 [us] Ave/Min/Max=    0(+-    0)/    0/    0 [us] #= 10
s1_Prescaler:Ex...   INFO Time User   : Tot=    0 [us] Ave/Min/Max=    0(+-    0)/    0/    0 [us] #= 10
ANDCounter:Execute   INFO Time User   : Tot=    0 [us] Ave/Min/Max=    0(+-    0)/    0/    0 [us] #= 10
seq_9:Execute        INFO Time User   : Tot=    0 [us] Ave/Min/Max=    0(+-    0)/    0/    0 [us] #= 10
ParentAlg:Execute    INFO Time User   : Tot=    0 [us] Ave/Min/Max=    0(+-    0)/    0/    0 [us] #= 10
seq_1:Execute        INFO Time User   : Tot=    0 [us] Ave/Min/Max=    0(+-    0)/    0/    0 [us] #= 10
seq_3:Execute        INFO Time User   : Tot=    0 [us] Ave/Min/Max=    0(+-    0)/    0/    0 [us] #= 10
seq_7:Execute        INFO Time User   : Tot=    0 [us] Ave/Min/Max=    0(+-    0)/    0/    0 [us] #= 10
seq_0:Execute        INFO Time User   : Tot=    0 [us] Ave/Min/Max=    0(+-    0)/    0/    0 [us] #= 10
seq_2:Execute        INFO Time User   : Tot=    0 [us] Ave/Min/Max=    0(+-    0)/    0/    0 [us] #= 10
seq_4:Execute        INFO Time User   : Tot=    0 [us] Ave/Min/Max=    0(+-    0)/    0/    0 [us] #= 10
seq_5:Execute        INFO Time User   : Tot=    0 [us] Ave/Min/Max=    0(+-    0)/    0/    0 [us] #= 10
seq_6:Execute        INFO Time User   : Tot=    0 [us] Ave/Min/Max=    0(+-    0)/    0/    0 [us] #= 10
seq_8:Execute        INFO Time User   : Tot=    0 [us] Ave/Min/Max=    0(+-    0)/    0/    0 [us] #= 10
seq_10:Execute       INFO Time User   : Tot=    0 [us] Ave/Min/Max=    0(+-    0)/    0/    0 [us] #= 10
s2_Prescaler:In...   INFO Time User   : Tot=    4 [ms]                                             #=  1
seq_3:Initialize     INFO Time User   : Tot=    4 [ms]                                             #=  1
seq_4:Initialize     INFO Time User   : Tot=    4 [ms]                                             #=  1
seq_5:Initialize     INFO Time User   : Tot=    4 [ms]                                             #=  1
seq_0:Initialize     INFO Time User   : Tot=   40 [ms]                                             #=  1
seq_6:Initialize     INFO Time User   : Tot=   44 [ms]                                             #=  1
seq_8:Initialize     INFO Time User   : Tot=   44 [ms]                                             #=  1
seq_10:Initialize    INFO Time User   : Tot=  372 [ms]                                             #=  1
ChronoStatSvc        INFO Time User   : Tot=  384 [ms]                                             #=  1
*****Chrono*****     INFO ****************************************************************************************************
ChronoStatSvc.f...   INFO  Service finalized successfully
ApplicationMgr       INFO Application Manager Finalized successfully
ApplicationMgr       INFO Application Manager Terminated successfully
